[gd_scene load_steps=3 format=2]

[ext_resource path="res://graphics/tileset.png" type="Texture" id=1]
[ext_resource path="res://objects/Debris.gd" type="Script" id=2]

[node name="Debris" type="Sprite" groups=[
"debris",
]]
texture = ExtResource( 1 )
centered = false
region_enabled = true
region_rect = Rect2( 0, 0, 8, 8 )
script = ExtResource( 2 )

