[gd_scene load_steps=4 format=2]

[ext_resource path="res://objects/Platform.gd" type="Script" id=1]
[ext_resource path="res://graphics/platform.png" type="Texture" id=2]

[sub_resource type="RectangleShape2D" id=1]

custom_solver_bias = 0.0
extents = Vector2( 8, 4 )

[node name="Platform" type="KinematicBody2D"]
input_pickable = false
collision_layer = 1
collision_mask = 1
collision/safe_margin = 0.08
motion/sync_to_physics = false
script = ExtResource( 1 )
path_follower = null

[node name="Sprite" type="Sprite" parent="."]
texture = ExtResource( 2 )
_sections_unfolded = [ "Transform" ]

[node name="CollisionShape2D" type="CollisionShape2D" parent="."]
shape = SubResource( 1 )
_sections_unfolded = [ "Transform", "shape" ]

