[gd_scene load_steps=3 format=2]

[ext_resource path="res://graphics/spaceship.png" type="Texture" id=1]

[sub_resource type="RectangleShape2D" id=1]
extents = Vector2( 16, 16 )

[node name="Spaceship" type="Area2D" groups=[
"spaceship",
]]
z_index = 50

[node name="Sprite" type="Sprite" parent="."]
texture = ExtResource( 1 )

[node name="CollisionShape2D" type="CollisionShape2D" parent="."]
position = Vector2( -16, 16 )
shape = SubResource( 1 )

[node name="StaticBody2D" type="StaticBody2D" parent="."]

[node name="CollisionPolygon2D" type="CollisionPolygon2D" parent="StaticBody2D"]
polygon = PoolVector2Array( 0, -12, 32, -12, 32, 24, 0, 24 )

