[gd_scene load_steps=3 format=2]

[ext_resource path="res://graphics/scientist.png" type="Texture" id=1]
[ext_resource path="res://objects/ThrownScientist.gd" type="Script" id=2]

[node name="ThrownScientist" type="Sprite"]
pause_mode = 2
rotation = 1.5708
texture = ExtResource( 1 )
flip_v = true
hframes = 2
frame = 1
script = ExtResource( 2 )

[node name="Timer" type="Timer" parent="."]
autostart = true

[connection signal="timeout" from="Timer" to="." method="_on_Timer_timeout"]
